Comparing placental bulk- and scRNA-seq
…
genes.sc %>%
  group_by(ensembl_gene_id) %>%
  filter(n() > 1)

## # A tibble: 0 x 2
## # Groups:   ensembl_gene_id [0]
## # ... with 2 variables: ensembl_gene_id <chr>, external_gene_name <chr>

Check for duplicate gene names

genes.sc %>%
  group_by(external_gene_name) %>%
  filter(n() > 1)

## # A tibble: 4,847 x 2
## # Groups:   external_gene_name [1,667]
##    ensembl_gene_id external_gene_name
##    <chr>           <chr>             
##  1 ENSG00000281362 LINC01115         
##  2 ENSG00000262826 INTS3             
##  3 ENSG00000274891 TRAPPC12          
##  4 ENSG00000280830 ADI1              
##  5 ENSG00000263163 SLC27A3           
##  6 ENSG00000261992 GATAD2B           
##  7 ENSG00000275974 PPIAL4F           
##  8 ENSG00000281486 SNTG2             
##  9 ENSG00000281020 SNTG2             
## 10 ENSG00000277603 TPO               
## # ... with 4,837 more rows
…
Double-check how featureCounts or DESeq2 handles gene IDs mapping to multiple haplotypes (could also just choose the standard haplotype but dont know of a way of doing without manually looking up IDs, perhaps someone has a list, going to ignore for now), noticing a lot of the same expression values with each multimapping gene symbol. Discussion of disambiguation https://www.researchgate.net/post/How-to-deal-with-multiple-ensemble-IDs-mapping-to-one-gene-symbol-in-a-RNA-Seq-dataset - taking the highest expression value seems the easiest. Another practical thread: https://www.biostars.org/p/389804/. Genes in haplotypic regions are the most likely reason for duplicate IDs mapping to one symbol https://www.biostars.org/p/119540/.

# Join sc expression matrix and gene IDs
gex.sc <-
  as_tibble(left_join(x = cluster.df, y = biomaRtList))

## Joining, by = "external_gene_name"

gex.sc %>%
  group_by(external_gene_name) %>%
  tally %>%
  filter (n > 1)

## # A tibble: 1,667 x 2
##    external_gene_name     n
##    <chr>              <int>
##  1 AADACL2                2
##  2 AADACL2-AS1            2
##  3 AATF                   2
##  4 ABCB11                 2
##  5 ABCC1                  2
##  6 ABCC6                  2
##  7 ABCF1                  7
##  8 ABHD16A                7
##  9 ABO                    2
## 10 ABR                    3
## # ... with 1,657 more rows
…
