GSE75010 Cell Type Proportion by Case-control status Beta Regression
…
#ggsave(here("results", "GSE75010", paste0("/", Sys.Date(), "cell_type_props_male_v_female_preeclampsia_facet_wrap.png")))

colnames(long.fetal)

## [1] "sample"     "phenotype"  "batch"      "ga"         "sex"       
## [6] "Cell.Type"  "Proportion"

long.fetal %>% group_by(phenotype, Cell.Type) %>% summarise(median = median(Proportion)) #%>% View

## `summarise()` has grouped output by 'phenotype'. You can override using the `.groups` argument.

## # A tibble: 38 x 3
## # Groups:   phenotype [2]
##    phenotype Cell.Type                    median
##    <fct>     <fct>                         <dbl>
##  1 Control   Fetal Mesenchymal Stem Cells 0.0616
##  2 Control   Fetal CD14+ Monocytes        0.0112
##  3 Control   Fetal CD8+ Cytotoxic T Cells 0     
##  4 Control   Fetal Naive CD4+ T Cells     0     
##  5 Control   Fetal Naive CD8+ T Cells     0.0884
##  6 Control   Fetal Natural Killer T Cells 0     
##  7 Control   Fetal B Cells                0     
##  8 Control   Fetal Cytotrophoblasts       0.290 
##  9 Control   Fetal GZMK+ Natural Killer   0.0155
## 10 Control   Fetal Memory CD4+ T Cells    0     
## # ... with 28 more rows
…
