gsea_viz
…
base.neg.hits <- base.neg %>%
  filter(`FDR q-val` < 0.05)
base.neg.hits

## # A tibble: 71 x 5
##    NAME                                       SIZE   NES `NOM p-val` `FDR q-val`
##    <chr>                                     <dbl> <dbl>       <dbl>       <dbl>
##  1 GO_AEROBIC_RESPIRATION                       76 -2.59           0    0       
##  2 GO_CELLULAR_RESPIRATION                     160 -2.58           0    0       
##  3 GO_ATP_SYNTHESIS_COUPLED_ELECTRON_TRANSP~    78 -2.52           0    0       
##  4 GO_MITOCHONDRIAL_RESPIRATORY_CHAIN_COMPL~    77 -2.51           0    0       
##  5 GO_MITOCHONDRIAL_TRANSLATION                117 -2.47           0    0       
##  6 GO_ANAPHASE_PROMOTING_COMPLEX_DEPENDENT_~    75 -2.43           0    0       
##  7 GO_REGULATION_OF_CELLULAR_AMINO_ACID_MET~    55 -2.43           0    0       
##  8 GO_MITOCHONDRIAL_GENE_EXPRESSION            140 -2.40           0    0.000359
##  9 GO_MITOCHONDRIAL_ELECTRON_TRANSPORT_NADH~    45 -2.39           0    0.000319
## 10 GO_TRANSLATIONAL_TERMINATION                 96 -2.38           0    0.000287
## # ... with 61 more rows

pc.neg.hits <- pc.neg %>%
  filter(`FDR q-val` < 0.05) %>%
  arrange(desc(abs(NES)))
pc.neg.hits

## # A tibble: 39 x 5
##    NAME                                       SIZE   NES `NOM p-val` `FDR q-val`
##    <chr>                                     <dbl> <dbl>       <dbl>       <dbl>
##  1 GO_TRANSLATIONAL_TERMINATION                 96 -2.73           0   0        
##  2 GO_MITOCHONDRIAL_TRANSLATION                117 -2.70           0   0        
##  3 GO_MITOCHONDRIAL_TRANSLATIONAL_TERMINATI~    82 -2.66           0   0        
##  4 GO_MITOCHONDRIAL_GENE_EXPRESSION            140 -2.65           0   0        
##  5 GO_MITOCHONDRIAL_RESPIRATORY_CHAIN_COMPL~    77 -2.61           0   0        
##  6 GO_ATP_SYNTHESIS_COUPLED_ELECTRON_TRANSP~    78 -2.59           0   0        
##  7 GO_MITOCHONDRIAL_ELECTRON_TRANSPORT_NADH~    45 -2.47           0   0.000112 
##  8 GO_NADH_DEHYDROGENASE_COMPLEX_ASSEMBLY       54 -2.47           0   0.0000983
##  9 GO_OXIDATIVE_PHOSPHORYLATION                101 -2.46           0   0.0000874
## 10 GO_RESPIRATORY_ELECTRON_TRANSPORT_CHAIN      95 -2.45           0   0.0000786
## # ... with 29 more rows

pc.pos.hits <- pc.pos %>%
  arrange(`FDR q-val`)
  #filter(`FDR q-val` < 0.05)
pc.pos.hits

## # A tibble: 2,269 x 5
##    NAME                                       SIZE   NES `NOM p-val` `FDR q-val`
##    <chr>                                     <dbl> <dbl>       <dbl>       <dbl>
##  1 GO_GLYCOLYTIC_PROCESS_THROUGH_FRUCTOSE_6~    27  2.22     0            0.0145
##  2 GO_REGULATION_OF_PHOSPHOLIPID_METABOLIC_~    77  2.07     0            0.101 
##  3 GO_ENDOTHELIAL_CELL_DEVELOPMENT              57  1.97     0            0.117 
##  4 GO_REGULATION_OF_MACROPHAGE_DERIVED_FOAM~    30  1.99     0.00204      0.117 
##  5 GO_POSITIVE_REGULATION_OF_CHOLESTEROL_EF~    18  1.91     0.00194      0.143 
##  6 GO_ESTABLISHMENT_OF_ENDOTHELIAL_BARRIER      42  1.99     0            0.144 
##  7 GO_HEXOSE_CATABOLIC_PROCESS                  49  1.91     0            0.154 
##  8 GO_NADH_METABOLIC_PROCESS                    35  1.92     0            0.166 
##  9 GO_PHOSPHATIDYLSERINE_METABOLIC_PROCESS      26  1.91     0            0.169 
## 10 GO_DENDRITIC_CELL_DIFFERENTIATION            38  1.93     0            0.170 
## # ... with 2,259 more rows
…
